CipherString = @SECLEVEL=0:-kPSK:-kDHEPSK:-kECDHEPSK:-kRSAPSK:-kEECDH:-kRSA:-aRSA:-aDSS:-AES256:-AES128:-CHACHA20-POLY1305:-SHA256:-3DES:!DES:!RC4:!RC2:!IDEA:-SEED:!eNULL:!aNULL:-AESCCM:-SHA1:!MD5:-SHA384:-CAMELLIA:-ARIA:-AESCCM8
Ciphersuites = 
MinProtocol = 
SignatureAlgorithms = 